<svg xmlns="http://www.w3.org/2000/svg" viewBox="1433 1453 300.615 220.582">
  <defs>
    <style>
      .cls-1 {
        fill: #e6f4ff;
      }

      .cls-2 {
        fill: #fff;
      }

      .cls-3 {
        fill: #6b85b3;
      }

      .cls-4 {
        fill: #f4f7f9;
      }

      .cls-5 {
        fill: #d0e8f7;
      }

      .cls-6 {
        fill: #ea6060;
      }
    </style>
  </defs>
  <g id="Group_174" data-name="Group 174" transform="translate(1433 1453)">
    <g id="Group_168" data-name="Group 168" transform="translate(0 137.315)">
      <path id="Path_685" data-name="Path 685" class="cls-1" d="M202.219,135.4H2.079a2.079,2.079,0,0,0,0,4.158H202.219a2.079,2.079,0,1,0,0-4.158Z" transform="translate(0 -116.344)"/>
      <path id="Path_686" data-name="Path 686" class="cls-1" d="M2.079,123.058H202.219a2.079,2.079,0,1,0,0-4.158H2.079a2.079,2.079,0,0,0,0,4.158Z" transform="translate(0 -118.9)"/>
      <path id="Path_687" data-name="Path 687" class="cls-1" d="M202.219,151.7H2.079a2.079,2.079,0,1,0,0,4.158H202.219a2.079,2.079,0,1,0,0-4.158Z" transform="translate(0 -113.82)"/>
      <path id="Path_688" data-name="Path 688" class="cls-1" d="M202.219,168H2.079a2.079,2.079,0,0,0,0,4.158H202.219a2.07,2.07,0,0,0,2.079-2.079A2,2,0,0,0,202.219,168Z" transform="translate(0 -111.295)"/>
      <path id="Path_689" data-name="Path 689" class="cls-1" d="M202.219,184.2H2.079a2.079,2.079,0,0,0,0,4.158H202.219a2.079,2.079,0,1,0,0-4.158Z" transform="translate(0 -108.786)"/>
    </g>
    <g id="Group_169" data-name="Group 169" transform="translate(96.317)">
      <path id="Path_690" data-name="Path 690" class="cls-1" d="M285.619,16.5H85.479a2.079,2.079,0,1,0,0,4.158H285.619a2.079,2.079,0,0,0,0-4.158Z" transform="translate(-83.4 2.556)"/>
      <path id="Path_691" data-name="Path 691" class="cls-1" d="M85.479,4.042H285.619A2.07,2.07,0,0,0,287.7,1.963,1.975,1.975,0,0,0,285.619,0H85.479A2.07,2.07,0,0,0,83.4,2.079,1.975,1.975,0,0,0,85.479,4.042Z" transform="translate(-83.4)"/>
      <path id="Path_692" data-name="Path 692" class="cls-1" d="M285.619,32.8H85.479a2.079,2.079,0,1,0,0,4.158H285.619a2.079,2.079,0,0,0,0-4.158Z" transform="translate(-83.4 5.08)"/>
      <path id="Path_693" data-name="Path 693" class="cls-1" d="M285.619,49H85.479a2.079,2.079,0,1,0,0,4.158H285.619a2.079,2.079,0,0,0,0-4.158Z" transform="translate(-83.4 7.589)"/>
      <path id="Path_694" data-name="Path 694" class="cls-1" d="M285.619,65.3H85.479a2.079,2.079,0,1,0,0,4.158H285.619a2.079,2.079,0,0,0,0-4.158Z" transform="translate(-83.4 10.114)"/>
    </g>
    <circle id="Ellipse_122" data-name="Ellipse 122" class="cls-2" cx="94.123" cy="94.123" r="94.123" transform="translate(57.282 32.337)"/>
    <g id="Group_170" data-name="Group 170" transform="translate(56.589 31.066)">
      <path id="Path_695" data-name="Path 695" class="cls-3" d="M143.469,215.838a94.469,94.469,0,1,1,94.469-94.469A94.583,94.583,0,0,1,143.469,215.838Zm0-187.091a92.621,92.621,0,1,0,92.621,92.621A92.76,92.76,0,0,0,143.469,28.748Z" transform="translate(-49 -26.9)"/>
    </g>
    <path id="Path_696" data-name="Path 696" class="cls-2" d="M189.891,33.6H97.5A26.073,26.073,0,0,0,71.4,59.7V72.866h2.31A15.969,15.969,0,0,1,89.647,88.8h0A15.969,15.969,0,0,1,73.71,104.741H71.4v24.021h2.31A15.969,15.969,0,0,1,89.647,144.7h0A15.969,15.969,0,0,1,73.71,160.637H71.4v20.095a26.073,26.073,0,0,0,26.1,26.1h92.39a26.073,26.073,0,0,0,26.1-26.1V59.7A26.222,26.222,0,0,0,189.891,33.6Z" transform="translate(11.058 5.204)"/>
    <path id="Path_697" data-name="Path 697" class="cls-4" d="M175.515,35.6H159a25.777,25.777,0,0,1,25.754,25.754V181A25.777,25.777,0,0,1,159,206.753h16.515A25.777,25.777,0,0,0,201.269,181V61.354A25.777,25.777,0,0,0,175.515,35.6Z" transform="translate(24.626 5.514)"/>
    <path id="Path_698" data-name="Path 698" class="cls-5" d="M107.472,206.932H96.5a26.073,26.073,0,0,1-26.1-26.1V160.737h2.31A15.969,15.969,0,0,0,88.647,144.8h0A15.969,15.969,0,0,0,72.71,128.862H70.4V104.841h2.31A15.969,15.969,0,0,0,88.647,88.9h0A15.969,15.969,0,0,0,72.71,72.966H70.4V59.8A26.073,26.073,0,0,1,96.5,33.7h10.971Z" transform="translate(10.904 5.219)"/>
    <g id="Group_171" data-name="Group 171" transform="translate(80.264 37.765)">
      <path id="Path_699" data-name="Path 699" class="cls-3" d="M189.03,208.242H96.755A27.305,27.305,0,0,1,69.5,180.987V160.892a1.157,1.157,0,0,1,1.155-1.155h2.31a14.782,14.782,0,1,0,0-29.565h-2.31a1.157,1.157,0,0,1-1.155-1.155V105a1.157,1.157,0,0,1,1.155-1.155h2.31a14.782,14.782,0,0,0,0-29.565h-2.31A1.157,1.157,0,0,1,69.5,73.121V59.955A27.305,27.305,0,0,1,96.755,32.7H189.03a27.305,27.305,0,0,1,27.255,27.255V181.1A27.356,27.356,0,0,1,189.03,208.242ZM71.81,162.162V181.1a24.866,24.866,0,0,0,24.83,24.83h92.39a24.866,24.866,0,0,0,24.83-24.83V59.955a24.866,24.866,0,0,0-24.83-24.83H96.755a24.866,24.866,0,0,0-24.83,24.83V71.966H73.08a17.092,17.092,0,0,1,0,34.184H71.925v21.712H73.08a17.092,17.092,0,1,1,0,34.184H71.81Z" transform="translate(-69.5 -32.7)"/>
    </g>
    <g id="Group_172" data-name="Group 172" transform="translate(130.848 75.645)">
      <path id="Path_700" data-name="Path 700" class="cls-3" d="M123.614,79.128a6.826,6.826,0,0,0,6.814-6.814,6.814,6.814,0,1,0-13.628,0A6.826,6.826,0,0,0,123.614,79.128Zm0-11.2a4.51,4.51,0,0,1,4.5,4.5,4.5,4.5,0,1,1-9.008,0A4.51,4.51,0,0,1,123.614,67.925Z" transform="translate(-112.758 -65.5)"/>
      <path id="Path_701" data-name="Path 701" class="cls-3" d="M114.455,89.611a1.157,1.157,0,0,0,1.155-1.155,8.546,8.546,0,1,1,17.092,0,1.157,1.157,0,0,0,1.155,1.155,1.242,1.242,0,0,0,1.155-1.155,10.856,10.856,0,1,0-21.712,0A1.157,1.157,0,0,0,114.455,89.611Z" transform="translate(-113.3 -63.626)"/>
      <path id="Path_702" data-name="Path 702" class="cls-3" d="M141.055,73.71h47.812a1.155,1.155,0,1,0,0-2.31H141.055a1.157,1.157,0,0,0-1.155,1.155A1.242,1.242,0,0,0,141.055,73.71Z" transform="translate(-109.18 -64.586)"/>
      <path id="Path_703" data-name="Path 703" class="cls-3" d="M141.055,79.11h27.486a1.155,1.155,0,0,0,0-2.31H141.055a1.155,1.155,0,0,0,0,2.31Z" transform="translate(-109.18 -63.75)"/>
      <path id="Path_704" data-name="Path 704" class="cls-3" d="M130.555,105.5a1.155,1.155,0,0,0,0,2.31h45.733a1.155,1.155,0,0,0,0-2.31Z" transform="translate(-110.806 -59.305)"/>
      <path id="Path_705" data-name="Path 705" class="cls-3" d="M192.987,115.7H114.455a1.155,1.155,0,0,0,0,2.31h78.532a1.155,1.155,0,0,0,0-2.31Z" transform="translate(-113.3 -57.725)"/>
      <path id="Path_706" data-name="Path 706" class="cls-3" d="M114.455,113.311h9.7a1.157,1.157,0,0,0,1.155-1.155v-9.7a1.157,1.157,0,0,0-1.155-1.155h-9.7a1.157,1.157,0,0,0-1.155,1.155v9.7A1.157,1.157,0,0,0,114.455,113.311Zm1.27-9.7h7.391V111h-7.391Z" transform="translate(-113.3 -59.955)"/>
      <path id="Path_707" data-name="Path 707" class="cls-3" d="M176.288,138.71a1.157,1.157,0,0,0,1.155-1.155,1.242,1.242,0,0,0-1.155-1.155H130.555a1.157,1.157,0,0,0-1.155,1.155,1.242,1.242,0,0,0,1.155,1.155Z" transform="translate(-110.806 -54.519)"/>
      <path id="Path_708" data-name="Path 708" class="cls-3" d="M192.987,146.5H114.455a1.155,1.155,0,0,0,0,2.31h78.532a1.155,1.155,0,0,0,0-2.31Z" transform="translate(-113.3 -52.955)"/>
      <path id="Path_709" data-name="Path 709" class="cls-3" d="M114.455,144.111h9.7a1.157,1.157,0,0,0,1.155-1.155v-9.7a1.157,1.157,0,0,0-1.155-1.155h-9.7a1.157,1.157,0,0,0-1.155,1.155v9.7A1.157,1.157,0,0,0,114.455,144.111Zm1.27-9.586h7.391v7.391h-7.391Z" transform="translate(-113.3 -55.185)"/>
    </g>
    <circle id="Ellipse_123" data-name="Ellipse 123" class="cls-5" cx="24.714" cy="24.714" r="24.714" transform="translate(62.248 19.286)"/>
    <path id="Path_710" data-name="Path 710" class="cls-1" d="M60.483,41.661A24.656,24.656,0,0,1,83,17.062a26.883,26.883,0,0,0-4.389-.462,24.714,24.714,0,1,0,0,49.429,13.262,13.262,0,0,0,2.194-.115A24.494,24.494,0,0,1,60.483,41.661Z" transform="translate(8.348 2.571)"/>
    <circle id="Ellipse_124" data-name="Ellipse 124" class="cls-2" cx="15.937" cy="15.937" r="15.937" transform="translate(71.372 28.295)"/>
    <path id="Path_711" data-name="Path 711" class="cls-6" d="M82.153,39.47H76.61V31.155a1.155,1.155,0,0,0-2.31,0v9.47a1.157,1.157,0,0,0,1.155,1.155h6.814a1.157,1.157,0,0,0,1.155-1.155A1.357,1.357,0,0,0,82.153,39.47Z" transform="translate(11.508 4.646)"/>
    <g id="Group_173" data-name="Group 173" transform="translate(54.857 14.649)">
      <path id="Path_712" data-name="Path 712" class="cls-3" d="M79.069,15.9a25.869,25.869,0,1,0,25.869,25.869A25.9,25.9,0,0,0,79.069,15.9Zm0,49.544a23.56,23.56,0,1,1,23.56-23.675A23.584,23.584,0,0,1,79.069,65.444Z" transform="translate(-46.617 -12.187)"/>
      <path id="Path_713" data-name="Path 713" class="cls-3" d="M68.057,69.061C57.432,66.751,49.81,55.317,49.81,42.036s7.622-24.714,18.247-27.024a1.267,1.267,0,0,0,.924-1.386,1.267,1.267,0,0,0-1.386-.924C55.931,15.243,47.5,27.6,47.5,42.036S55.931,68.83,67.595,71.37h.231a1.125,1.125,0,0,0,1.155-.924A1.2,1.2,0,0,0,68.057,69.061Z" transform="translate(-47.5 -12.685)"/>
      <path id="Path_714" data-name="Path 714" class="cls-3" d="M77.892,23.5a17.092,17.092,0,1,0,0,34.184,17.521,17.521,0,0,0,9.239-2.656,1.169,1.169,0,1,0-1.27-1.963,14.9,14.9,0,0,1-7.969,2.31A14.782,14.782,0,1,1,92.675,40.592a14.472,14.472,0,0,1-1.5,6.583,1.137,1.137,0,0,0,2.079.924,17.519,17.519,0,0,0,1.732-7.622A17.1,17.1,0,0,0,77.892,23.5Z" transform="translate(-45.44 -11.009)"/>
    </g>
  </g>
</svg>
