<svg xmlns="http://www.w3.org/2000/svg" viewBox="907 1453 268.608 220.582">
  <defs>
    <style>
      .cls-1 {
        fill: #fff;
      }

      .cls-2 {
        fill: #6b85b3;
      }

      .cls-3 {
        fill: #d0e8f7;
      }

      .cls-4 {
        fill: #e6f4ff;
      }

      .cls-5 {
        fill: #99aece;
      }

      .cls-6 {
        fill: #fafdff;
      }

      .cls-7 {
        fill: #bedbea;
      }
    </style>
  </defs>
  <g id="Group_167" data-name="Group 167" transform="translate(907 1453)">
    <circle id="Ellipse_119" data-name="Ellipse 119" class="cls-1" cx="103.209" cy="103.209" r="103.209" transform="translate(12.654 14.164)"/>
    <g id="Group_157" data-name="Group 157" transform="translate(11.61 13.003)">
      <path id="Path_661" data-name="Path 661" class="cls-2" d="M114.254,218.779C56.787,218.779,10,172.225,10,114.99S56.787,11.2,114.254,11.2,218.508,57.754,218.508,114.99,171.721,218.779,114.254,218.779Zm0-205.373C57.948,13.406,12.09,59.031,12.09,114.99S57.948,216.573,114.254,216.573,216.418,170.948,216.418,114.99,170.561,13.406,114.254,13.406Z" transform="translate(-10 -11.2)"/>
    </g>
    <path id="Path_662" data-name="Path 662" class="cls-3" d="M30.9,89.767,104.389,10.59l2.322-2.09h2.67l8.127,8.591,70.586,73.6-57.816,52.591h-40.4Z" transform="translate(4.974 1.368)"/>
    <path id="Path_663" data-name="Path 663" class="cls-4" d="M33.6,177.05,88.629,126.2h40.4l55.262,50.85-1.509,1.741H36.618Z" transform="translate(5.408 20.313)"/>
    <path id="Path_664" data-name="Path 664" class="cls-4" d="M175.477,79.3,116.5,131.891l55.262,50.734,3.018-1.161.7-4.992Z" transform="translate(18.752 12.764)"/>
    <g id="Group_158" data-name="Group 158" transform="translate(33.071 7.43)">
      <path id="Path_665" data-name="Path 665" class="cls-2" d="M189.875,91.73a1.054,1.054,0,0,1-.813-.348L110.35,9.651a3.084,3.084,0,0,0-4.412,0l-75.462,80.8a1.152,1.152,0,1,1-1.741-1.509L104.2,8.141A5.593,5.593,0,0,1,108.028,6.4a5.529,5.529,0,0,1,3.947,1.625l78.713,81.848a1.122,1.122,0,0,1,0,1.625A1.105,1.105,0,0,1,189.875,91.73Z" transform="translate(-28.486 -6.4)"/>
    </g>
    <path id="Path_666" data-name="Path 666" class="cls-1" d="M160.849,108.222v-58.4A11.693,11.693,0,0,0,149.123,38.1h-88.7A11.693,11.693,0,0,0,48.7,49.826v54.681l37.5,34.6h40.982Z" transform="translate(7.839 6.133)"/>
    <path id="Path_667" data-name="Path 667" class="cls-4" d="M29.5,79.3l58.977,52.591L33.215,182.625l-3.135-1.161-.58-4.992Z" transform="translate(4.748 12.764)"/>
    <g id="Group_159" data-name="Group 159" transform="translate(73.14 69.309)">
      <path id="Path_668" data-name="Path 668" class="cls-2" d="M65.961,62.022h51.082a1.161,1.161,0,1,0,0-2.322H65.961A1.1,1.1,0,0,0,64.8,60.861,1.163,1.163,0,0,0,65.961,62.022Z" transform="translate(-62.71 -59.7)"/>
      <path id="Path_669" data-name="Path 669" class="cls-2" d="M65.961,72.622H125.17a1.161,1.161,0,0,0,0-2.322H65.961A1.1,1.1,0,0,0,64.8,71.461,1.163,1.163,0,0,0,65.961,72.622Z" transform="translate(-62.71 -57.994)"/>
      <path id="Path_670" data-name="Path 670" class="cls-2" d="M65.161,83.222h74.534a1.161,1.161,0,1,0,0-2.322H65.161a1.161,1.161,0,1,0,0,2.322Z" transform="translate(-62.839 -56.288)"/>
      <path id="Path_671" data-name="Path 671" class="cls-2" d="M139.694,91.5H65.161a1.161,1.161,0,0,0,0,2.322h74.534a1.1,1.1,0,0,0,1.161-1.161A1.163,1.163,0,0,0,139.694,91.5Z" transform="translate(-62.839 -54.582)"/>
      <path id="Path_672" data-name="Path 672" class="cls-2" d="M138.694,102H64.161a1.161,1.161,0,1,0,0,2.322h74.534a1.1,1.1,0,0,0,1.161-1.161A1.163,1.163,0,0,0,138.694,102Z" transform="translate(-63 -52.891)"/>
    </g>
    <circle id="Ellipse_120" data-name="Ellipse 120" class="cls-5" cx="28.327" cy="28.327" r="28.327" transform="translate(0 0)"/>
    <g id="Group_160" data-name="Group 160" transform="translate(17.647 15.673)">
      <path id="Path_673" data-name="Path 673" class="cls-1" d="M15.2,18.144a4.466,4.466,0,0,1,1.393-3.367A5.011,5.011,0,0,1,20.308,13.5a5.082,5.082,0,0,1,3.715,1.393,4.725,4.725,0,0,1,1.393,3.483v1.161A4.294,4.294,0,0,1,24.023,22.9a4.907,4.907,0,0,1-3.6,1.277A5.761,5.761,0,0,1,16.709,22.9,4.454,4.454,0,0,1,15.2,19.421ZM17.522,19.3a2.392,2.392,0,0,0,.813,1.974,2.392,2.392,0,0,0,1.974.813,2.392,2.392,0,0,0,1.974-.813,2.838,2.838,0,0,0,.7-2.09V18.028a2.731,2.731,0,0,0-.7-1.974,2.8,2.8,0,0,0-1.974-.813,2.392,2.392,0,0,0-1.974.813,3.241,3.241,0,0,0-.7,2.09V19.3ZM21,34.862l-1.741-1.045,12.19-17.763L33.311,17.1Zm6.385-3.947a4.466,4.466,0,0,1,1.393-3.367A5.011,5.011,0,0,1,32.5,26.271a5.539,5.539,0,0,1,3.715,1.277,4.547,4.547,0,0,1,1.393,3.483v1.161a4.466,4.466,0,0,1-1.393,3.367A5.011,5.011,0,0,1,32.5,36.835a5.761,5.761,0,0,1-3.715-1.277,4.454,4.454,0,0,1-1.509-3.483V30.914Zm2.322,1.277a2.392,2.392,0,0,0,.813,1.974,3.029,3.029,0,0,0,1.974.813,2.392,2.392,0,0,0,1.974-.813,3.03,3.03,0,0,0,.7-2.09V30.914a2.731,2.731,0,0,0-.7-1.974,2.8,2.8,0,0,0-1.974-.813,2.392,2.392,0,0,0-1.974.813,3.1,3.1,0,0,0-.813,2.09v1.161Z" transform="translate(-15.2 -13.5)"/>
    </g>
    <g id="Group_161" data-name="Group 161" transform="translate(208.614 135.592)">
      <path id="Path_674" data-name="Path 674" class="cls-2" d="M207.913,149.493a1.152,1.152,0,0,0-.58,1.509,8.381,8.381,0,0,1-1.045,9.4l-8.939,9.4c-3.135,3.251-8.707,3.135-12.306-.348-3.715-3.483-4.179-9.055-1.045-12.306l8.939-9.4c2.322-2.438,5.921-3.019,9.4-1.625a1.143,1.143,0,1,0,.929-2.09,10.52,10.52,0,0,0-11.958,2.09l-8.939,9.636c-3.947,4.179-3.483,11.261,1.045,15.557a12.1,12.1,0,0,0,8.243,3.367,10.092,10.092,0,0,0,7.43-3.135l8.939-9.4a10.464,10.464,0,0,0,1.509-12.074A1.335,1.335,0,0,0,207.913,149.493Z" transform="translate(-179.691 -112.567)"/>
      <path id="Path_675" data-name="Path 675" class="cls-2" d="M231.894,120.168a12.192,12.192,0,0,0-8.011-3.367,9.829,9.829,0,0,0-7.662,3.135l-8.939,9.4a10.464,10.464,0,0,0-1.509,12.074,1.143,1.143,0,1,0,2.09-.929,8.381,8.381,0,0,1,1.045-9.4l8.939-9.4a7.388,7.388,0,0,1,5.921-2.322,9.587,9.587,0,0,1,6.385,2.67c3.715,3.483,4.179,9.055,1.045,12.306l-8.939,9.4c-2.322,2.438-5.921,3.019-9.4,1.625a1.143,1.143,0,0,0-.929,2.09,11.068,11.068,0,0,0,4.644.929,9.659,9.659,0,0,0,7.314-3.135l8.939-9.4C237,131.545,236.537,124.58,231.894,120.168Z" transform="translate(-175.693 -116.793)"/>
      <path id="Path_676" data-name="Path 676" class="cls-2" d="M194.048,159.6a1.122,1.122,0,0,0,1.625,0L220.4,133.474a1.149,1.149,0,0,0-1.625-1.625L194.048,157.97A1.122,1.122,0,0,0,194.048,159.6Z" transform="translate(-177.436 -114.426)"/>
    </g>
    <path id="Path_677" data-name="Path 677" class="cls-6" d="M37.134,86.978v81.383s-1.509,11.726,14.512,11.726l136.993,1.393-5.34,4.992H40.384l-7.43-.929L30.4,176.488V79.2Z" transform="translate(4.893 12.748)"/>
    <path id="Path_678" data-name="Path 678" class="cls-7" d="M145.3,75.2v27.166l4.644-4.876V74.5Z" transform="translate(23.387 11.991)"/>
    <g id="Group_162" data-name="Group 162" transform="translate(33.087 89.974)">
      <path id="Path_679" data-name="Path 679" class="cls-2" d="M178.728,188.952H40.806A12.312,12.312,0,0,1,28.5,176.646V78.661a1.161,1.161,0,1,1,2.322,0v97.985a10.059,10.059,0,0,0,9.984,9.984H178.728a10.059,10.059,0,0,0,9.984-9.984V79.59a1.161,1.161,0,0,1,2.322,0v97.056A12.312,12.312,0,0,1,178.728,188.952Z" transform="translate(-28.5 -77.5)"/>
    </g>
    <g id="Group_163" data-name="Group 163" transform="translate(134.492 91.42)">
      <path id="Path_680" data-name="Path 680" class="cls-2" d="M116.954,134.07a1.054,1.054,0,0,1-.813-.348,1.128,1.128,0,0,1,.116-1.625l58.164-53.056a1.152,1.152,0,1,1,1.509,1.741l-58.28,52.94A.7.7,0,0,1,116.954,134.07Z" transform="translate(-115.845 -78.745)"/>
    </g>
    <g id="Group_164" data-name="Group 164" transform="translate(36.338 144.423)">
      <path id="Path_681" data-name="Path 681" class="cls-2" d="M185.707,178.152l-56.539-51.43h-39.7l-56.539,51.43L31.3,176.527,88.535,124.4h41.446l57.351,52.127Z" transform="translate(-31.3 -124.4)"/>
    </g>
    <path id="Path_682" data-name="Path 682" class="cls-2" d="M30.425,77.4,28.8,79.141l59.905,54.1,1.509-1.625Z" transform="translate(4.636 12.458)"/>
    <g id="Group_165" data-name="Group 165" transform="translate(55.378 43.072)">
      <path id="Path_683" data-name="Path 683" class="cls-2" d="M162.17,109.544h-2.322V49.987a10.6,10.6,0,0,0-10.565-10.565h-88.7A10.6,10.6,0,0,0,50.022,49.987V105.48H47.7V49.987A12.932,12.932,0,0,1,60.587,37.1h88.581a12.932,12.932,0,0,1,12.887,12.887v59.557Z" transform="translate(-47.7 -37.1)"/>
    </g>
    <circle id="Ellipse_121" data-name="Ellipse 121" class="cls-2" cx="33.087" cy="33.087" r="33.087" transform="translate(136.761 23.8)"/>
    <g id="Group_166" data-name="Group 166" transform="translate(153.544 41.446)">
      <path id="Path_684" data-name="Path 684" class="cls-1" d="M164.7,52.65a10.966,10.966,0,0,1-2.438,6.966,7.026,7.026,0,0,1-5.8,2.554c-2.554,0-4.063-1.045-4.76-3.018a6.6,6.6,0,0,1-2.438,2.322,6.418,6.418,0,0,1-2.9.813,4.891,4.891,0,0,1-4.3-2.09,8.234,8.234,0,0,1-1.045-5.8,15.1,15.1,0,0,1,1.509-5.34,10.931,10.931,0,0,1,3.135-3.715,6.878,6.878,0,0,1,4.063-1.393,11.05,11.05,0,0,1,2.9.348,11.65,11.65,0,0,1,2.9,1.509l-1.045,10.1c-.232,2.786.58,4.179,2.554,4.179a4.318,4.318,0,0,0,3.715-2.09,10.366,10.366,0,0,0,1.509-5.34c.232-4.76-.7-8.359-2.9-10.8s-5.456-3.715-9.984-3.715a13.584,13.584,0,0,0-7.2,1.858,12.776,12.776,0,0,0-4.992,5.224,18.858,18.858,0,0,0-1.974,7.895,18.572,18.572,0,0,0,1.161,7.895,10.579,10.579,0,0,0,4.412,5.108,14.065,14.065,0,0,0,7.2,1.741,18.9,18.9,0,0,0,3.6-.348,10.23,10.23,0,0,0,3.019-1.045l.7,2.09a14.9,14.9,0,0,1-3.251,1.161,17.092,17.092,0,0,1-4.179.464,16.527,16.527,0,0,1-8.591-2.09,13.48,13.48,0,0,1-5.456-5.921,18.629,18.629,0,0,1-1.509-9.055,19.481,19.481,0,0,1,2.438-9.055,15.405,15.405,0,0,1,6.037-6.153,16.624,16.624,0,0,1,8.591-2.206,16.821,16.821,0,0,1,8.591,2.09,12.6,12.6,0,0,1,5.34,5.921A21.628,21.628,0,0,1,164.7,52.65Zm-20.549,1.625a5.836,5.836,0,0,0,.58,3.947,2.785,2.785,0,0,0,2.554,1.393,3.687,3.687,0,0,0,2.322-.929,6.812,6.812,0,0,0,1.858-2.67V55.9l.929-9.172a5.4,5.4,0,0,0-2.438-.58,4.371,4.371,0,0,0-3.831,2.206A13.175,13.175,0,0,0,144.149,54.275Z" transform="translate(-132.257 -35.7)"/>
    </g>
  </g>
</svg>
