<svg xmlns="http://www.w3.org/2000/svg" viewBox="-6836 11033 43 43">
  <defs>
    <style>
      .cls-1 {
        fill: rgba(132,146,166,0.06);
        stroke: rgba(132,146,166,0.11);
      }

      .cls-1, .cls-2 {
        stroke-width: 2px;
      }

      .cls-2, .cls-4 {
        fill: none;
      }

      .cls-2 {
        stroke: rgba(132,146,166,0.5);
        stroke-miterlimit: 10;
      }

      .cls-3 {
        stroke: none;
      }
    </style>
  </defs>
  <g id="Group_1898" data-name="Group 1898" transform="translate(-6133 11771) rotate(180)">
    <g id="Ellipse_471" data-name="Ellipse 471" class="cls-1" transform="translate(660 695)">
      <circle class="cls-3" cx="21.5" cy="21.5" r="21.5"/>
      <circle class="cls-4" cx="21.5" cy="21.5" r="20.5"/>
    </g>
    <path id="Path_3652" data-name="Path 3652" class="cls-2" d="M31.487,14.1l-8.693,8.693L14.1,14.1" transform="translate(658.52 699.362)"/>
  </g>
</svg>
